Beer Analysis
…
# Get list of all unique styles of beers and the number of beers of each style
# For question/item 8 and 9

# Only keep beers with a Style, ABV and IBU
uniqueStyles = mergedBeerData %>% filter(!is.na(Style))

# Create dataframe that contains every unique style and how many beers have that style
uniqueStyles = uniqueStyles %>% group_by(Style) %>% tally()

uniqueStyles

## # A tibble: 100 × 2
##    Style                            n
##    <fct>                        <int>
##  1 ""                               5
##  2 "Abbey Single Ale"               2
##  3 "Altbier"                       12
##  4 "American Adjunct Lager"        12
##  5 "American Amber / Red Ale"     118
##  6 "American Amber / Red Lager"    25
##  7 "American Barleywine"            3
##  8 "American Black Ale"            32
##  9 "American Blonde Ale"           97
## 10 "American Brown Ale"            65
## # … with 90 more rows
…
